%YAML 1.1
%TAG !u! tag:unity3d.com,2011:
--- !u!78 &1
TagManager:
  serializedVersion: 2
  tags:
  - Paddle
  - Bounds
  - Smash
  - Tipper
  layers:
  - Default
  - TransparentFX
  - Ignore Raycast
  - 
  - Water
  - UI
  - 
  - 
  - P1Paddle
  - P2Paddle
  - P1Ball
  - P2Ball
  - ParticleWall
  - Particle
  - Smash
  - 
  - 
  - 
  - 
  - 
  - 
  - 
  - 
  - 
  - 
  - 
  - 
  - 
  - 
  - 
  - 
  - 
  m_SortingLayers:
  - name: ChargeBar
    uniqueID: 979133171
    locked: 0
  - name: Default
    uniqueID: 0
    locked: 0
  - name: UI_Lower
    uniqueID: 620845319
    locked: 0
  - name: UI
    uniqueID: 1261700625
    locked: 0
  - name: UI_Upper
    uniqueID: 3991324647
    locked: 0
  - name: Mask
    uniqueID: 1667099699
    locked: 0
